{
  "Nodes": [
    {
      "Id": 1,
      "Data": { "Name": "Saint-Petersburg" }
    },
    {
      "Id": 2,
      "Data": { "Name": "Moscow" }
    },
    {
      "Id": 3,
      "Data": { "Name": "Pskov" }
    },
    {
      "Id": 4,
      "Data": { "Name": "Novgorod" }
    }
  ],
  "Links": [
    {
      "StartNode": {
        "Id": 1,
        "Data": { "Name": "Saint-Petersburg" }
      },
      "EndNode": {
        "Id": 2,
        "Data": { "Name": "Moscow" }
      },
      "Weight": 707
    },
    {
      "StartNode": {
        "Id": 1,
        "Data": { "Name": "Saint-Petersburg" }
      },
      "EndNode": {
        "Id": 3,
        "Data": { "Name": "Pskov" }
      },
      "Weight": 294
    },
    {
      "StartNode": {
        "Id": 1,
        "Data": { "Name": "Saint-Petersburg" }
      },
      "EndNode": {
        "Id": 4,
        "Data": { "Name": "Novgorod" }
      },
      "Weight": 191
    },
    {
      "StartNode": {
        "Id": 2,
        "Data": { "Name": "Moscow" }
      },
      "EndNode": {
        "Id": 1,
        "Data": { "Name": "Saint-Petersburg" }
      },
      "Weight": 707
    },
    {
      "StartNode": {
        "Id": 2,
        "Data": { "Name": "Moscow" }
      },
      "EndNode": {
        "Id": 3,
        "Data": { "Name": "Pskov" }
      },
      "Weight": 731
    },
    {
      "StartNode": {
        "Id": 2,
        "Data": { "Name": "Moscow" }
      },
      "EndNode": {
        "Id": 4,
        "Data": { "Name": "Novgorod" }
      },
      "Weight": 731
    },
    {
      "StartNode": {
        "Id": 3,
        "Data": { "Name": "Pskov" }
      },
      "EndNode": {
        "Id": 1,
        "Data": { "Name": "Saint-Petersburg" }
      },
      "Weight": 294
    },
    {
      "StartNode": {
        "Id": 3,
        "Data": { "Name": "Pskov" }
      },
      "EndNode": {
        "Id": 2,
        "Data": { "Name": "Moscow" }
      },
      "Weight": 731
    },
    {
      "StartNode": {
        "Id": 3,
        "Data": { "Name": "Pskov" }
      },
      "EndNode": {
        "Id": 4,
        "Data": { "Name": "Novgorod" }
      },
      "Weight": 213
    },
    {
      "StartNode": {
        "Id": 4,
        "Data": { "Name": "Novgorod" }
      },
      "EndNode": {
        "Id": 1,
        "Data": { "Name": "Saint-Petersburg" }
      },
      "Weight": 191
    },
    {
      "StartNode": {
        "Id": 4,
        "Data": { "Name": "Novgorod" }
      },
      "EndNode": {
        "Id": 2,
        "Data": { "Name": "Moscow" }
      },
      "Weight": 731
    },
    {
      "StartNode": {
        "Id": 4,
        "Data": { "Name": "Novgorod" }
      },
      "EndNode": {
        "Id": 3,
        "Data": { "Name": "Pskov" }
      },
      "Weight": 213
    }
  ]
}